[
  {
    "post_id": 0,
    "old_link_name": "novaja-serija-jelektromobilej-ot-bmw",
    "count_request": "73",
    "last_request": "2019-12-31 14:48:09.344263"
  },
  {
    "post_id": 3,
    "old_link_name": "tesla-dostigla-proizvodstva-model-3",
    "count_request": "71",
    "last_request": "2019-12-30 23:27:40.842949"
  },
  {
    "post_id": 3,
    "old_link_name": "tesla-dostigla-proizvodstva-model-3",
    "count_request": "71",
    "last_request": "2019-12-30 23:27:40.842949"
  },
  {
    "post_id": 125,
    "old_link_name": "tesla-model-y-budet-revoljuciej-proizvodstva-v-2020-godu-skazal-ilon-mask",
    "count_request": "0",
    "last_request": "2019-05-13 20:28:48.049762"
  },
  {
    "post_id": 125,
    "old_link_name": "tesla-model-y-budet-revoljuciej-proizvodstva-v-2020-godu-skazal-ilon-mask",
    "count_request": "0",
    "last_request": "2019-05-13 20:30:12.27157"
  },
  {
    "post_id": 141,
    "old_link_name": "tesla-opublikovala-novoe-video-s-tainstvennym-avtomobilem-novym-roadster-v-dejstvii-i-mnogim-drugim",
    "count_request": "0",
    "last_request": "2019-05-13 20:26:09.246732"
  },
  {
    "post_id": 152,
    "old_link_name": "ilon-mask-soobshhil-chto-na-jetoj-nedele-proizvodstvo-model-3-prevysit-500-edinic-v-den",
    "count_request": "113",
    "last_request": "2020-01-03 20:04:51.539974"
  },
  {
    "post_id": 154,
    "old_link_name": "vypushheny-pervye-rezultaty-ispytanij-bezopasnosti-tesla-model-3",
    "count_request": "0",
    "last_request": "2019-05-17 08:55:14.569859"
  },
  {
    "post_id": 159,
    "old_link_name": "ilon-mask-podelilsja-bolee-podrobnoj-informaciej-o-planah-boring-company-personalizirovannaja-sistema-massovyh-perevozok-za-1",
    "count_request": "104",
    "last_request": "2020-01-02 15:54:59.085066"
  },
  {
    "post_id": 159,
    "old_link_name": "plani-boring-company-sistema-massovyh-perevozok-za-1-dollar",
    "count_request": "0",
    "last_request": "2019-05-17 08:52:00.931493"
  },
  {
    "post_id": 161,
    "old_link_name": "tesla-sokrashhaet-vremja-ozhidanija-zakazov-model-3",
    "count_request": "0",
    "last_request": "2019-05-17 08:46:45.558507"
  },
  {
    "post_id": 163,
    "old_link_name": "novaja-tesla-model-3-performance-version-mozhet-byt-bolee-moshhnoj-chem-zajavleno-oficialno",
    "count_request": "0",
    "last_request": "2019-05-17 08:43:22.72147"
  },
  {
    "post_id": 167,
    "old_link_name": "honda-rabotaet-nad-novym-jelektromobilem-fit",
    "count_request": "0",
    "last_request": "2019-05-17 08:41:23.046115"
  },
  {
    "post_id": 169,
    "old_link_name": "batarei-tesla-sohranjajut-jenergiju-vo-vremja-otkljuchenija-osnovnoj-seti-v-pujerto-riko",
    "count_request": "0",
    "last_request": "2019-05-17 08:39:40.030102"
  },
  {
    "post_id": 177,
    "old_link_name": "tesla-model-3-spasaet-semju-ot-sereznyh-travm-vo-vremja-stolknovenija",
    "count_request": "0",
    "last_request": "2019-05-17 08:38:15.927261"
  },
  {
    "post_id": 181,
    "old_link_name": "tesla-nachala-krupnye-postavki-model-3-v-kanadu",
    "count_request": "0",
    "last_request": "2019-05-17 08:35:29.885976"
  },
  {
    "post_id": 186,
    "old_link_name": "ilon-mask-rasskazal-o-novyh-izmenenijah-v-tesla-model-3",
    "count_request": "0",
    "last_request": "2019-05-17 08:28:35.860813"
  },
  {
    "post_id": 187,
    "old_link_name": "ilon-mask-razrabatyvaet-rezhim-zashhity-bioweapon-i-novyj-vozdushnyj-filtr-dlja-model-3",
    "count_request": "0",
    "last_request": "2019-05-17 08:32:15.922266"
  },
  {
    "post_id": 189,
    "old_link_name": "otkazy-ot-tesla-model-3-prodolzhajut-rasti-23-rezervirovanij-byli-vozvrashheny",
    "count_request": "101",
    "last_request": "2020-01-03 06:40:36.284817"
  },
  {
    "post_id": 192,
    "old_link_name": "akcionery-tesla-golosujut-za-to-chtoby-ostavit-ilona-maska-v-kachestve-predsedatelja-kompanii",
    "count_request": "100",
    "last_request": "2020-01-02 21:27:38.609808"
  },
  {
    "post_id": 193,
    "old_link_name": "ilon-mask-raskryvaet-novye-podrobnosti-o-tesla-model-y",
    "count_request": "0",
    "last_request": "2019-05-13 20:22:33.571366"
  },
  {
    "post_id": 198,
    "old_link_name": "tesla-gigafactory-1-opublikovannye-snimki-pokazyvajut-novuju-ploshhadku-pered-nachalom-rasshirenija",
    "count_request": "112",
    "last_request": "2020-01-02 08:10:47.233864"
  },
  {
    "post_id": 198,
    "old_link_name": "tesla-gigafactory-1-opublikovannye-snimki-pokazyvajut-novuju-ploshhadku-pered-nachalom-rasshirenija",
    "count_request": "112",
    "last_request": "2020-01-02 08:10:47.233864"
  },
  {
    "post_id": 202,
    "old_link_name": "vzgljad-na-fabriku-tesla-model-3-iznutri",
    "count_request": "0",
    "last_request": "2019-05-17 08:11:22.478539"
  },
  {
    "post_id": 215,
    "old_link_name": "the-boring-company-podelilas-video-gde-model-x-uskorjaetsja-v-ih-tunnele",
    "count_request": "0",
    "last_request": "2019-05-17 08:06:28.46936"
  },
  {
    "post_id": 237,
    "old_link_name": "tesla-obnovljaet-parametry-i-ceny-model-3-dvojnoj-motor-stanovitsja-deshevle-pojavljajutsja-cvet-i-mnogoe-drugoe",
    "count_request": "0",
    "last_request": "2019-05-17 08:04:02.571361"
  },
  {
    "post_id": 238,
    "old_link_name": "tesla-predstavila-novyj-znachok-dlja-model-3",
    "count_request": "0",
    "last_request": "2019-05-17 07:59:24.493433"
  },
  {
    "post_id": 241,
    "old_link_name": "progress-generalnogo-plana-na-fabrike-tesla-vo-frimonte",
    "count_request": "0",
    "last_request": "2019-05-17 07:51:27.255936"
  },
  {
    "post_id": 245,
    "old_link_name": "ilon-mask-podelilsja-redkimi-fotografijami-s-zavoda-fremont",
    "count_request": "0",
    "last_request": "2019-05-17 07:46:31.508365"
  },
  {
    "post_id": 245,
    "old_link_name": "ilon-mask-podelilsja-redkimi-fotografijami-s-zavoda-fremont",
    "count_request": "0",
    "last_request": "2019-05-17 07:48:49.021964"
  },
  {
    "post_id": 246,
    "old_link_name": "tesla-dostigla-celi-po-proizvodstvu-model-3-a-tak-zhe-postavila-rekord-po-obshhemu-obemu-vypushhennyh-avtomobilej-za-nedelju-v-7000-shtuk",
    "count_request": "128",
    "last_request": "2019-12-27 17:25:38.495828"
  },
  {
    "post_id": 248,
    "old_link_name": "ford-izdevaetsja-nad-dostizheniem-tesla-model-3-nesmotrja-na-otstavanie-v-jelektromobiljah",
    "count_request": "0",
    "last_request": "2019-05-16 09:33:21.451802"
  },
  {
    "post_id": 248,
    "old_link_name": "ford-izdevaetsja-nad-dostizheniem-tesla-model-3-nesmotrja-na-otstavanie-v-jelektromobiljah",
    "count_request": "0",
    "last_request": "2019-05-13 20:19:01.0437"
  },
  {
    "post_id": 248,
    "old_link_name": "ford-izdevaetsja-nad-dostizheniem-tesla-model-3-nesmotrja-na-otstavanie-v-jelektromobiljah",
    "count_request": "0",
    "last_request": "2019-05-13 20:19:29.249663"
  },
  {
    "post_id": 250,
    "old_link_name": "panasonic-gotov-uvelichit-investicii-v-tesla-gigafactory-1",
    "count_request": "0",
    "last_request": "2019-05-16 09:31:15.697934"
  },
  {
    "post_id": 251,
    "old_link_name": "tesla-iskljuchit-vazhnye-testy-v-processe-proizvodstva-model-3",
    "count_request": "0",
    "last_request": "2019-05-16 09:28:49.494511"
  },
  {
    "post_id": 252,
    "old_link_name": "vw-anonsiruet-novyj-polnostju-jelektricheskuju-platformu-dlja-obmena-avtomobiljami-we-",
    "count_request": "51",
    "last_request": "2019-09-05 06:27:37.800539"
  },
  {
    "post_id": 252,
    "old_link_name": "vw-anonsiruet-novyj-polnostju-jelektricheskuju-platformu-dlja-obmena-avtomobiljami-we-kotoruju-zapustit-v-sledujushhem-godu",
    "count_request": "96",
    "last_request": "2019-12-20 09:31:03.910452"
  },
  {
    "post_id": 252,
    "old_link_name": "vw-anonsiruet-novyj-polnostju-jelektricheskuju-platformu-dlja-obmena-avtomobiljami-we-",
    "count_request": "51",
    "last_request": "2019-09-05 06:27:37.800539"
  },
  {
    "post_id": 252,
    "old_link_name": "vw-anonsiruet-novyj-polnostju-jelektricheskuju-platformu-dlja-obmena-avtomobiljami-we-",
    "count_request": "51",
    "last_request": "2019-09-05 06:27:37.800539"
  },
  {
    "post_id": 266,
    "old_link_name": "ilon-mask-skazal-chto-tesla-vyjdet-iz-proizvodstvennogo-ada-cherez-mesjac-kogda-oni-nachnut-idti-k-10-000-model-3-v-nedelju",
    "count_request": "101",
    "last_request": "2019-12-27 09:20:45.629457"
  },
  {
    "post_id": 273,
    "old_link_name": "tesla-model-3-performance-okazalas-menee-jeffektivna-chem-obychnaja-model-3",
    "count_request": "0",
    "last_request": "2019-05-16 09:09:14.503739"
  },
  {
    "post_id": 274,
    "old_link_name": "pervaja-avarija-tesla-model-3-v-kotoroj-jelektromobil-perevernulsja",
    "count_request": "0",
    "last_request": "2019-05-16 08:51:53.133972"
  },
  {
    "post_id": 276,
    "old_link_name": "tesla-model-3-dual-motor-i-performance-poluchili-oficialnye-rejtingi-epa",
    "count_request": "0",
    "last_request": "2019-05-16 08:48:57.541814"
  },
  {
    "post_id": 278,
    "old_link_name": "nissan-leaf-stanovitsja-samym-prodavaemym-ev-v-evrope-poluchiv-37-000-zakazov-i-dostaviv-18-000-mashin",
    "count_request": "0",
    "last_request": "2019-05-16 08:46:22.560453"
  },
  {
    "post_id": 281,
    "old_link_name": "tesla-agressivno-narashhivaet-svoi-solnechnye-i-jenergeticheskie-produkty-govorit-tehnicheskij-direktor-shtrobel",
    "count_request": "0",
    "last_request": "2019-05-16 08:44:26.948458"
  },
  {
    "post_id": 284,
    "old_link_name": "tesla-uvelichivaet-cenu-svoih-jelektromobilej-model-s-i-model-x",
    "count_request": "0",
    "last_request": "2019-05-16 08:31:30.933036"
  },
  {
    "post_id": 285,
    "old_link_name": "tesla-obrashhaetsja-k-postavshhikam-s-celju-snizhenija-zatrat-chtoby-nachat-poluchat-pribyl",
    "count_request": "0",
    "last_request": "2019-05-16 08:27:42.742164"
  },
  {
    "post_id": 288,
    "old_link_name": "rukovoditel-prodazh-tesla-uhodit-iz-kompanii",
    "count_request": "0",
    "last_request": "2019-05-16 08:25:18.285469"
  },
  {
    "post_id": 290,
    "old_link_name": "boring-company-ilona-maska-hvastaetsja-pochti-zavershennym-testovym-tunnelem",
    "count_request": "0",
    "last_request": "2019-05-16 08:21:53.600862"
  },
  {
    "post_id": 294,
    "old_link_name": "neverojatnyj-obzor-na-tesla-model-3-iznutri-ljubiteljam-pokovyrjatsja-v-mashine-tochno-budet-na-chto-posmotret",
    "count_request": "0",
    "last_request": "2019-05-16 08:12:16.75597"
  },
  {
    "post_id": 294,
    "old_link_name": "neverojatnyj-obzor-na-tesla-model-3-iznutri-ljubiteljam-pokovyrjatsja-v-mashine-tochno-budet-na-chto-posmotret",
    "count_request": "0",
    "last_request": "2019-05-16 08:12:44.844589"
  },
  {
    "post_id": 296,
    "old_link_name": "tesla-model-3-kotoraja-pokazyvaet-izmenenie-klimata",
    "count_request": "0",
    "last_request": "2019-05-16 08:09:12.863169"
  },
  {
    "post_id": 298,
    "old_link_name": "tesla-budet-imet-iskusstvennyj-intellekt-kitt-v-svoih-avtomobiljah-soobshhil-ilon-mask",
    "count_request": "0",
    "last_request": "2019-05-16 08:06:06.755676"
  },
  {
    "post_id": 299,
    "old_link_name": "ilon-mask-dostavil-tesla-model-3-vladelcu-prjamo-domoj",
    "count_request": "0",
    "last_request": "2019-05-16 08:06:42.143757"
  },
  {
    "post_id": 299,
    "old_link_name": "ilon-mask-dostavil-tesla-model-3-vladelcu-prjamo-domoj",
    "count_request": "0",
    "last_request": "2019-05-16 08:03:30.999702"
  },
  {
    "post_id": 301,
    "old_link_name": "tesla-vedet-peregovory-s-germaniej-i-niderlandami-po-gigafactory-4",
    "count_request": "0",
    "last_request": "2019-05-13 20:15:26.268599"
  },
  {
    "post_id": 301,
    "old_link_name": "tesla-vedet-peregovory-s-germaniej-i-niderlandami-po-gigafactory-4",
    "count_request": "0",
    "last_request": "2019-05-13 20:16:53.882382"
  },
  {
    "post_id": 307,
    "old_link_name": "tesla-opublikovala-otchet-za-2-kvartal-s-rekordnoj-vyruchkoj-v-4-milliarda-dollarov",
    "count_request": "160",
    "last_request": "2019-12-28 04:25:32.088239"
  },
  {
    "post_id": 309,
    "old_link_name": "tesla-podtverzhdaet-proizvodstvo-batarej-na-gigafactory-1-20-gvtch-bolshe-chem-vse-avtoproizvoditeli-vmeste-vzjatye",
    "count_request": "123",
    "last_request": "2020-01-03 19:23:23.397554"
  },
  {
    "post_id": 309,
    "old_link_name": "tesla-podtverzhdaet-proizvodstvo-batarej-v-20-gvtch",
    "count_request": "0",
    "last_request": "2019-05-15 11:22:12.580951"
  },
  {
    "post_id": 310,
    "old_link_name": "tesla-energy-stradaet-ot-nedostatka-batarejnyh-jacheek-no-perspektivy-rosta-sumasshedshie",
    "count_request": "0",
    "last_request": "2019-05-15 11:18:39.925505"
  },
  {
    "post_id": 310,
    "old_link_name": "tesla-energy-stradaet-ot-nedostatka-batarejnyh-jacheek-no-perspektivy-rosta-sumasshedshie",
    "count_request": "0",
    "last_request": "2019-05-15 09:37:58.725545"
  },
  {
    "post_id": 311,
    "old_link_name": "akcii-tesla-tsla-na-podeme-nesmotrja-na-rekordnye-poteri-bolee-700-millionov-dollarov",
    "count_request": "120",
    "last_request": "2019-12-28 04:43:51.614574"
  },
  {
    "post_id": 328,
    "old_link_name": "5-samyh-interesnyh-jelektromobilja-kotorye-vy-smozhete-kupit-v-blizhajshie-2-goda",
    "count_request": "0",
    "last_request": "2019-05-15 11:06:58.139697"
  },
  {
    "post_id": 337,
    "old_link_name": "tesla-rasshirjaet-infrastrukturu-v-nju-jorke-novymi-stancijami-urban-supercharger",
    "count_request": "0",
    "last_request": "2019-05-15 11:04:11.005352"
  },
  {
    "post_id": 337,
    "old_link_name": "tesla-rasshirjaet-infrastrukturu-v-nju-jorke-novymi-stancijami-urban-supercharger",
    "count_request": "0",
    "last_request": "2019-05-15 11:17:57.059595"
  },
  {
    "post_id": 343,
    "old_link_name": "volvo-dostavila-tesla-model-3-v-shveciju-dlja-izuchenija-i-obratnoj-inzhenerii",
    "count_request": "0",
    "last_request": "2019-05-15 10:58:46.059578"
  },
  {
    "post_id": 349,
    "old_link_name": "rimac-predstavljaet-novyj-polnostju-jelektricheskij-giperkar-concept-two-california-edition",
    "count_request": "0",
    "last_request": "2019-05-15 10:45:39.378384"
  },
  {
    "post_id": 354,
    "old_link_name": "tesla-rasshirjaet-kreditnyj-portfel-do-1-1-milliarda-dollarov-chtoby-izbegat-privlechenija-novyh-investorov-i-poluchat-pribyl",
    "count_request": "86",
    "last_request": "2019-12-19 08:56:51.002456"
  },
  {
    "post_id": 361,
    "old_link_name": "posle-pechalno-izvestnogo-tvitta-ilon-mask-govorit-chto-tesla-ostanetsja-publichnoj-sovet-soglashaetsja",
    "count_request": "0",
    "last_request": "2019-05-15 10:40:33.69537"
  },
  {
    "post_id": 379,
    "old_link_name": "internet-set-avtoflota-tesla-upala-na-dannyj-moment-servis-vosstanovlen",
    "count_request": "0",
    "last_request": "2019-05-15 10:38:49.384911"
  },
  {
    "post_id": 388,
    "old_link_name": "tesla-govorit-chto-novyj-rezhim-track-dlja-model-3-dostupen-tolko-s-paketom-performance-upgrade-za-5000",
    "count_request": "94",
    "last_request": "2020-01-02 20:16:47.115863"
  },
  {
    "post_id": 391,
    "old_link_name": "bmw-draznit-svoim-jelektricheskim-avtomobilem-inext-za-mesjac-do-vypuska",
    "count_request": "0",
    "last_request": "2019-05-15 10:27:04.508325"
  },
  {
    "post_id": 399,
    "old_link_name": "pervyy-vzglyad-na-elektromobil-bmw-inext-v-novom-tizere",
    "count_request": "0",
    "last_request": "2019-05-15 10:25:19.218133"
  },
  {
    "post_id": 406,
    "old_link_name": "yamaha-teper-prodaet-i-elektricheskie-velosipedy-v-ssha",
    "count_request": "0",
    "last_request": "2019-05-14 08:23:52.878969"
  },
  {
    "post_id": 408,
    "old_link_name": "ford-vypustil-pervoe-izobrajenie-mustang-vdohnovlennyy-elektricheskoy-proizvoditelnostyu",
    "count_request": "0",
    "last_request": "2019-05-13 20:16:57.7465"
  },
  {
    "post_id": 408,
    "old_link_name": "ford-vypustil-pervoe-izobrajenie-mustang-vdohnovlennyy-elektricheskoy-proizvoditelnostyu",
    "count_request": "0",
    "last_request": "2019-05-13 20:13:45.275407"
  },
  {
    "post_id": 414,
    "old_link_name": "tesla-zapuskaet-bolshoe-sobytie-po-postavkam-model-3",
    "count_request": "0",
    "last_request": "2019-05-15 09:59:04.850287"
  },
  {
    "post_id": 416,
    "old_link_name": "tesla-snova-uvelichivaet-cenu-na-model-3-dual-motor-awd",
    "count_request": "0",
    "last_request": "2019-05-14 08:22:44.566445"
  },
  {
    "post_id": 418,
    "old_link_name": "flot-tesla-dostig-otmetki-v-9-milliardov-elektricheskih-mil",
    "count_request": "0",
    "last_request": "2019-05-14 08:20:10.102563"
  },
  {
    "post_id": 418,
    "old_link_name": "flot-tesla-dostig-otmetki-v-9-milliardov-elektricheskih-mil",
    "count_request": "0",
    "last_request": "2019-05-15 09:56:25.172698"
  },
  {
    "post_id": 420,
    "old_link_name": "v-etom-godu-tesla-veroyatnee-vsego-dostignet-stoimosti-batarei-v-100-dollarovkvtch",
    "count_request": "0",
    "last_request": "2019-05-15 09:53:31.723774"
  },
  {
    "post_id": 420,
    "old_link_name": "v-etom-godu-tesla-veroyatnee-vsego-dostignet-stoimosti-batarei-v-100-dollarovkvtch",
    "count_request": "0",
    "last_request": "2019-05-15 09:55:42.699987"
  },
  {
    "post_id": 440,
    "old_link_name": "v-novoy-versii-avtopilota-tesla-vypustit-funkciyu-videoregistratora",
    "count_request": "0",
    "last_request": "2019-05-15 09:51:58.743158"
  },
  {
    "post_id": 444,
    "old_link_name": "audi-predstavil-elektricheskiy-vnedorojnik-e-tron-s-nachalnoy-cenoy-v-74-800-dollarov",
    "count_request": "0",
    "last_request": "2019-04-18 15:34:30.365568"
  },
  {
    "post_id": 444,
    "old_link_name": "audi-predstavila-elektricheskiy-vnedorojnik-e-tron-s-nachalnoy-cenoy-v-74-800-dollarov",
    "count_request": "50",
    "last_request": "2020-01-01 14:29:33.177373"
  },
  {
    "post_id": 447,
    "old_link_name": "amazon-sobiraetsya-prodavat-zaryadnye-ustroystva-dlya-elektricheskih-avtomobiley-pod-klyuch",
    "count_request": "0",
    "last_request": "2019-03-20 07:51:12.59188"
  },
  {
    "post_id": 447,
    "old_link_name": "amazon-sobiraetsya-prodavat-zaryadnye-ustroystva-dlya-elektricheskih-avtomobiley-s-ustanovkoy-pod-klyuch",
    "count_request": "52",
    "last_request": "2019-12-25 18:48:27.172673"
  },
  {
    "post_id": 448,
    "old_link_name": "bmw-predstavlyaet-koncepciyu-elektricheskogo-gibrida-inext-sleduyushchego-pokoleniya",
    "count_request": "0",
    "last_request": "2019-05-15 09:50:08.487472"
  },
  {
    "post_id": 450,
    "old_link_name": "tesla-model-3-poluchaet-5-zvezd-za-bezopasnost-v-kajdoy-kategorii-ot-nhtsa",
    "count_request": "0",
    "last_request": "2019-05-15 09:45:58.137512"
  },
  {
    "post_id": 451,
    "old_link_name": "tesla-poluchila-1-124-novyh-zakazov-na-model-3-za-dve-nedeli",
    "count_request": "0",
    "last_request": "2019-05-13 21:21:40.36968"
  },
  {
    "post_id": 452,
    "old_link_name": "tesla-model-3-nakonec-poluchaet-svoy-klyuch-brelok---pervye-izobrajeniya",
    "count_request": "111",
    "last_request": "2019-12-26 05:17:53.785682"
  },
  {
    "post_id": 455,
    "old_link_name": "mercedes-benz-dostavil-pervye-10-elektrotyagachey-eactros-bolshoy-moshchnosti",
    "count_request": "0",
    "last_request": "2019-05-22 08:25:13.573875"
  },
  {
    "post_id": 461,
    "old_link_name": "tesla-zapuskaet-uslugu-ot-dveri-do-dveri-pod-nazvaniem-tesla-direct",
    "count_request": "0",
    "last_request": "2019-05-13 21:18:14.514096"
  },
  {
    "post_id": 462,
    "old_link_name": "ogromnaya-batareya-iz-powerpack-ot-tesla-v-avstralii-stoila-66-mln-a-prinesla-uje-do-17-mln",
    "count_request": "0",
    "last_request": "2019-05-14 08:16:45.982362"
  },
  {
    "post_id": 463,
    "old_link_name": "tesla-sozdaet-novyy-krupnyy-obekt-vblizi-svoego-evropeyskogo-zavoda",
    "count_request": "0",
    "last_request": "2019-05-13 21:16:36.337212"
  },
  {
    "post_id": 464,
    "old_link_name": "tesla-nachinaet-stroit-svoi-sobstvennye-avtoperevozchiki-iz-za-krayney-nehvatki-v-nedelyu-pikovyh-postavok-model-3",
    "count_request": "0",
    "last_request": "2019-05-13 21:15:05.634034"
  },
  {
    "post_id": 465,
    "old_link_name": "tesla-gotovit-model-3-dlya-vyhoda-na-rynok-evropy",
    "count_request": "0",
    "last_request": "2019-05-13 21:13:46.074923"
  },
  {
    "post_id": 466,
    "old_link_name": "vw-predstavlyaet-dostupnyy-elektroavtomobil-s-3-konfiguraciyami-batarey-i-startovoy-cenoy---30-000",
    "count_request": "85",
    "last_request": "2019-12-25 11:37:03.453321"
  },
  {
    "post_id": 467,
    "old_link_name": "sravnenie-elektricheskih-motociklov-city-slicker-za-2-500-i-zero-16-000",
    "count_request": "0",
    "last_request": "2019-05-14 07:59:33.068706"
  },
  {
    "post_id": 470,
    "old_link_name": "vot-kak-rabotaet-funkciya-videoregistratoa-tesla-s-ispolzovaniem-kamer-autopilot",
    "count_request": "91",
    "last_request": "2019-12-31 21:52:33.942753"
  },
  {
    "post_id": 471,
    "old_link_name": "panasonic-operejaet-grafik-chtoby-dobavit-proizvodstvennye-linii-akkumulyatornyh-batarey-na-tesla-gigafactory-1",
    "count_request": "87",
    "last_request": "2019-12-19 14:21:26.800901"
  },
  {
    "post_id": 471,
    "old_link_name": "panasonic-operejaet-grafik-chtoby-dobavit-proizvodstvennye-linii-akkumulyatornyh-batarey-na-tesla-gigafactory-1",
    "count_request": "87",
    "last_request": "2019-12-19 14:21:26.800901"
  },
  {
    "post_id": 475,
    "old_link_name": "tesla-zapuskaet-mobilnyy-servis-obslujivaniya-v-avstralii-rasshiryaya-prisutstvie-pered-vyhodom-model-3-na-rynok-strany",
    "count_request": "0",
    "last_request": "2019-05-13 21:07:28.509934"
  },
  {
    "post_id": 476,
    "old_link_name": "akcii-tesla-padayut-na-fone-novostey-ob-iske-na-ilona-maska",
    "count_request": "0",
    "last_request": "2019-05-19 07:51:40.071462"
  },
  {
    "post_id": 476,
    "old_link_name": "akcii-tesla-padayut-na-fone-novostey-o-tom-chto-komissiya-po-cennym-bumagam-podaet-isk-na-ilona-maska",
    "count_request": "83",
    "last_request": "2019-12-16 02:14:39.666532"
  },
  {
    "post_id": 479,
    "old_link_name": "sovet-direktorov-tesla-podderjivaet-ilona-maska-v-dele-protiv-sec-kotoryy-pytaetsya-smestit-direktora-s-ego-posta",
    "count_request": "0",
    "last_request": "2019-05-13 21:06:07.210406"
  },
  {
    "post_id": 480,
    "old_link_name": "tesla-version-90-obzor-vseh-novyh-funkciy-dlya-model-3-model-s-i-model-x",
    "count_request": "0",
    "last_request": "2019-05-13 20:52:38.547637"
  },
  {
    "post_id": 480,
    "old_link_name": "tesla-version-90-obzor-vseh-novyh-funkciy-dlya-model-3-model-s-i-model-x",
    "count_request": "0",
    "last_request": "2019-05-13 20:53:10.283796"
  },
  {
    "post_id": 480,
    "old_link_name": "tesla-version-90-obzor-vseh-novyh-funkciy-dlya-model-3-model-s-i-model-x",
    "count_request": "0",
    "last_request": "2019-05-13 20:52:49.863275"
  },
  {
    "post_id": 481,
    "old_link_name": "tesla-dostigaet-celi-proizvodstva-model-3-dlya-rekordnogo-kvartala-s-2-dnyami-v-zapase",
    "count_request": "0",
    "last_request": "2019-05-13 21:03:48.089466"
  },
  {
    "post_id": 487,
    "old_link_name": "tesla-podtverjdaet-proizvodstvo-v-tretem-kvartale-80-000-avtomobiley-i-83-500-postavok",
    "count_request": "0",
    "last_request": "2019-05-14 07:55:30.119095"
  },
  {
    "post_id": 487,
    "old_link_name": "tesla-podtverjdaet-proizvodstvo-v-tretem-kvartale-80-000-avtomobiley-i-83-500-postavok",
    "count_request": "0",
    "last_request": "2019-05-13 21:02:11.925712"
  },
  {
    "post_id": 488,
    "old_link_name": "rapide-3-kommercheskiy-elektricheskiy-skuterkotoryy-mojet-zaryajatsya-do-80-za-15-minut",
    "count_request": "127",
    "last_request": "2019-12-22 06:05:35.572099"
  },
  {
    "post_id": 488,
    "old_link_name": "rapide-3-kommercheskiy-elektricheskiy-skuterkotoryy-mojet-zaryajatsya-do-80-za-15-minut",
    "count_request": "127",
    "last_request": "2019-12-22 06:05:35.572099"
  },
  {
    "post_id": 490,
    "old_link_name": "tesla-model-3-debyutiruet-na-avtosalone-v-parije-gde-sobiraet-tolpu",
    "count_request": "0",
    "last_request": "2019-05-13 20:59:56.95685"
  },
  {
    "post_id": 491,
    "old_link_name": "prodaji-elektromobiley-dostigli-novogo-rekordnogo-urovnya-v-norvegii",
    "count_request": "0",
    "last_request": "2019-05-13 20:56:38.595261"
  },
  {
    "post_id": 492,
    "old_link_name": "novyy-agressivnyy-vneshniy-vid-tesla-model-3-s-komplektom-revozport-racing",
    "count_request": "0",
    "last_request": "2019-05-19 07:40:14.772955"
  },
  {
    "post_id": 492,
    "old_link_name": "novyy-agressivnyy-vneshniy-vid-tesla-model-3-s-komplektom-revozport-racing",
    "count_request": "0",
    "last_request": "2019-05-13 20:54:47.649479"
  },
  {
    "post_id": 492,
    "old_link_name": "novyy-agressivnyy-vneshniy-vid-tesla-model-3-s-komplektom-revozport-racing",
    "count_request": "0",
    "last_request": "2019-05-13 20:54:58.396237"
  },
  {
    "post_id": 495,
    "old_link_name": "vot-nekotorye-iz-samyh-sumasshedshih-elektricheskih-avtomobiley-na-parijskom-avtosalone-kotorye-vy-nikogda-ne-smojete-kupit",
    "count_request": "115",
    "last_request": "2019-12-17 22:20:54.591172"
  },
  {
    "post_id": 496,
    "old_link_name": "tesla-model-3-okazyvaet-davlenie-na-rynok-priznaet-bmw",
    "count_request": "0",
    "last_request": "2019-05-14 07:54:42.741396"
  },
  {
    "post_id": 496,
    "old_link_name": "tesla-model-3-okazyvaet-davlenie-na-rynok-priznaet-bmw",
    "count_request": "0",
    "last_request": "2019-05-13 20:58:07.613869"
  },
  {
    "post_id": 497,
    "old_link_name": "tesla-roadster-sleduyushchego-pokoleniya-sovershaet-redkuyu-progulku---para-novyh-fotografiy-na-radost-glazam",
    "count_request": "91",
    "last_request": "2019-12-20 14:18:27.884235"
  },
  {
    "post_id": 503,
    "old_link_name": "v-proshlom-kvartale-tesla-oboshel-mercedes-benz-po-prodajam-v-ssha",
    "count_request": "0",
    "last_request": "2019-05-13 20:48:55.564083"
  },
  {
    "post_id": 503,
    "old_link_name": "v-proshlom-kvartale-tesla-oboshel-mercedes-benz-po-prodajam-v-ssha",
    "count_request": "0",
    "last_request": "2019-05-13 20:48:55.588365"
  },
  {
    "post_id": 503,
    "old_link_name": "v-proshlom-kvartale-tesla-oboshel-mercedes-benz-po-prodajam-v-ssha",
    "count_request": "0",
    "last_request": "2019-05-13 20:48:31.354594"
  },
  {
    "post_id": 504,
    "old_link_name": "vw-sozdaet-rabochuyu-gruppu-v-lice-postavshchika-batarey-lg-chtoby-obespechit-postavki-dlya-narashchivaniya-moshchnosti-ev",
    "count_request": "85",
    "last_request": "2019-12-17 16:25:53.68391"
  },
  {
    "post_id": 511,
    "old_link_name": "puteshestvie-k-yujnomu-polyusu-na-elektricheskom-avtomobile-sdelannom-s-pomoshchyu-3d-printera-iz-plastikovogo-musora-i-pitayushchegosya-ot-solnechnoy-energii",
    "count_request": "132",
    "last_request": "2019-12-27 02:43:57.222282"
  },
  {
    "post_id": 512,
    "old_link_name": "na-tesla-podal-v-sud-shtat-nevada-za-neoplachennye-nalogi-avtoproizvoditel-govorit-chto-eto-kancelyarskaya-oshibka",
    "count_request": "84",
    "last_request": "2019-12-20 01:54:07.693328"
  },
  {
    "post_id": 514,
    "old_link_name": "rekuperaciya-ili-preobrazovanie-kineticheskoy-energii-tormojeniya",
    "count_request": "0",
    "last_request": "2019-05-14 07:45:56.149253"
  },
  {
    "post_id": 515,
    "old_link_name": "rukovodstvo-po-tipam-motociklov-dlya-nachinayushchih-i-ne-tolko-foto-i-harakteristiki",
    "count_request": "0",
    "last_request": "2019-05-14 07:36:40.684282"
  },
  {
    "post_id": 516,
    "old_link_name": "tesla-rabotaet-nad-sobachim-rejimom",
    "count_request": "0",
    "last_request": "2019-05-13 20:47:05.700872"
  },
  {
    "post_id": 517,
    "old_link_name": "otchet-tesla-za-3-kvartal-2018-goda---kompaniya-nakonec-to-poluchila-pribyl",
    "count_request": "105",
    "last_request": "2019-12-20 15:46:56.405417"
  },
  {
    "post_id": 518,
    "old_link_name": "tesla-pereneset-nekotorye-chasti-proizvodstva-model-3-v-kitay-uje-v-sleduyushchem-godu",
    "count_request": "0",
    "last_request": "2019-05-13 20:09:23.98274"
  },
  {
    "post_id": 518,
    "old_link_name": "tesla-pereneset-nekotorye-chasti-proizvodstva-model-3-v-kitay-uje-v-sleduyushchem-godu",
    "count_request": "0",
    "last_request": "2019-05-13 20:45:17.669692"
  },
  {
    "post_id": 519,
    "old_link_name": "ilon-mask-utverjdaet-prototip-tesla-model-y-dlya-proizvodstva-v-2020-godu",
    "count_request": "0",
    "last_request": "2019-05-13 20:06:58.707713"
  },
  {
    "post_id": 519,
    "old_link_name": "ilon-mask-utverjdaet-prototip-tesla-model-y-dlya-proizvodstva-v-2020-godu",
    "count_request": "0",
    "last_request": "2019-05-13 20:44:40.781167"
  },
  {
    "post_id": 519,
    "old_link_name": "ilon-mask-utverjdaet-prototip-tesla-model-y-dlya-proizvodstva-v-2020-godu",
    "count_request": "0",
    "last_request": "2019-05-13 20:06:37.057267"
  },
  {
    "post_id": 520,
    "old_link_name": "tesla-model-3-stanovitsya-samym-prodavaemym-amerikanskim-avtomobilem-s-tochki-zreniya-dohodov",
    "count_request": "0",
    "last_request": "2019-05-13 20:43:55.897277"
  },
  {
    "post_id": 521,
    "old_link_name": "alternativnaya-energetika-vidy-preimushchestva-i-nedostatki-primery",
    "count_request": "0",
    "last_request": "2019-05-13 20:38:47.790558"
  },
  {
    "post_id": 522,
    "old_link_name": "tesla-uluchshaet-rekuperativnoe-tormojenie-na-model-3",
    "count_request": "0",
    "last_request": "2019-05-13 20:41:57.896029"
  },
  {
    "post_id": 523,
    "old_link_name": "tesla-model-3-za-35-000-dollarov-mojet-poyavitsya-menshe-chem-cherez-6-mesyacev",
    "count_request": "0",
    "last_request": "2019-05-13 20:40:21.08912"
  },
  {
    "post_id": 527,
    "old_link_name": "tipy-velosipedov-foto-harakteristiki-ceny",
    "count_request": "0",
    "last_request": "2019-05-14 07:39:29.792962"
  },
  {
    "post_id": 528,
    "old_link_name": "tesla-megapack---novyy-energeticheskiy-modul-kompanii",
    "count_request": "109",
    "last_request": "2020-01-03 14:43:08.561382"
  },
  {
    "post_id": 545,
    "old_link_name": "tesla-rabotaet-nad-novymi-i-uluchshennymi-akkumulyatorami",
    "count_request": "0",
    "last_request": "2019-05-13 20:38:14.333891"
  },
  {
    "post_id": 545,
    "old_link_name": "tesla-rabotaet-nad-novymi-i-uluchshennymi-akkumulyatorami",
    "count_request": "0",
    "last_request": "2019-05-13 20:38:01.35689"
  },
  {
    "post_id": 552,
    "old_link_name": "tesla-vypuskaet-redkie-fotografiigigafactory-2-iznutri",
    "count_request": "0",
    "last_request": "2019-04-15 11:16:33.325905"
  },
  {
    "post_id": 555,
    "old_link_name": "akkumulyatory-tesla-stoyat-menshe-produkcii-lg-na-20",
    "count_request": "0",
    "last_request": "2019-05-13 20:37:19.346903"
  },
  {
    "post_id": 556,
    "old_link_name": "5-udivitelnyh-medicinskih-innovaciy-kotorye-izmenili-mir",
    "count_request": "0",
    "last_request": "2019-03-18 11:25:26.316765"
  },
  {
    "post_id": 556,
    "old_link_name": "5-udivitelnyh-medicinskih-innovaciy-kotorye-izmenili-mir",
    "count_request": "0",
    "last_request": "2019-03-18 11:26:01.251692"
  },
  {
    "post_id": 556,
    "old_link_name": "5-udivitelnyh-medicinskih-innovaciy-kotorye-izmenili-mir",
    "count_request": "0",
    "last_request": "2019-09-22 09:34:57.310247"
  },
  {
    "post_id": 559,
    "old_link_name": "hyundai-narashchivaet-proizvodstvo-kona-electric",
    "count_request": "0",
    "last_request": "2019-05-13 20:36:41.883967"
  },
  {
    "post_id": 565,
    "old_link_name": "gm-ubivaet-chevy-volt-zakryvaet-zavody-no-uvelichivaet-investicii-v-elektromobili",
    "count_request": "0",
    "last_request": "2019-05-14 07:38:27.505469"
  },
  {
    "post_id": 567,
    "old_link_name": "elektricheskiy-byton-m-byte---nebolshoy-testdrayv-universalnogo-vnedorojnika",
    "count_request": "53",
    "last_request": "2019-12-21 01:02:11.874858"
  },
  {
    "post_id": 573,
    "old_link_name": "tesla-model-y-budet-imet-tretiy-ryad-sideniy-a-proizvodstvo-nachnetsya-v-seredine-2020-goda",
    "count_request": "0",
    "last_request": "2019-05-13 20:32:31.499016"
  },
  {
    "post_id": 573,
    "old_link_name": "tesla-model-y-budet-imet-tretiy-ryad-sideniy-a-proizvodstvo-nachnetsya-v-seredine-2020-goda",
    "count_request": "0",
    "last_request": "2019-05-13 20:03:58.931409"
  },
  {
    "post_id": 583,
    "old_link_name": "elektrokar",
    "count_request": "0",
    "last_request": "2019-05-13 20:31:12.738715"
  },
  {
    "post_id": 583,
    "old_link_name": "elektrokar",
    "count_request": "0",
    "last_request": "2019-05-13 20:31:30.685372"
  },
  {
    "post_id": 586,
    "old_link_name": "solnechnye-batarei-preimushchestva-stoimost-otzyvy",
    "count_request": "0",
    "last_request": "2019-05-14 07:41:33.517768"
  },
  {
    "post_id": 607,
    "old_link_name": "gm-i-amazon-dumayut-proinvestirovat-v-elektricheskiy-pikap-ot-rivian",
    "count_request": "0",
    "last_request": "2019-03-12 16:13:24.2294"
  },
  {
    "post_id": 608,
    "old_link_name": "toyota-vypustila-postydnuyu-antielektromobilnuyu-reklamu-dlya-prodaji-gibrida-corolla",
    "count_request": "0",
    "last_request": "2019-05-13 20:33:16.312391"
  },
  {
    "post_id": 609,
    "old_link_name": "audi-predstavil-dizayn-novogo-elektromobilya-q4-e-tron",
    "count_request": "0",
    "last_request": "2019-05-13 20:34:06.047361"
  },
  {
    "post_id": 611,
    "old_link_name": "bmw-govorit-chto-stanet-pobeditelem-v-gonke-elektromobiley-i-avtonomnogo-vojdeniya",
    "count_request": "0",
    "last_request": "2019-05-13 20:35:08.007199"
  },
  {
    "post_id": 620,
    "old_link_name": "novyy-mikro-dron-4-preodolevaet-cel-v-500-000-dollarov-na-kraudfandinge",
    "count_request": "0",
    "last_request": "2019-03-04 05:59:35.013832"
  },
  {
    "post_id": 620,
    "old_link_name": "novyy-mikro-dron-4-preodolevaet-cel-v-500-000-dollarov-na-kraudfandinge",
    "count_request": "0",
    "last_request": "2019-03-04 05:59:16.882393"
  },
  {
    "post_id": 621,
    "old_link_name": "vw-pokazal-novyy-elektricheskiy-baggi",
    "count_request": "0",
    "last_request": "2019-03-05 14:32:04.645241"
  },
  {
    "post_id": 621,
    "old_link_name": "vw-elektricheskiy-baggi",
    "count_request": "0",
    "last_request": "2019-03-11 08:47:18.968026"
  },
  {
    "post_id": 621,
    "old_link_name": "vw-elektricheskiy-baggi",
    "count_request": "0",
    "last_request": "2019-05-28 17:12:39.453037"
  },
  {
    "post_id": 622,
    "old_link_name": "audi-predstavil-elektricheskiy-vnedorojnik-q4-e-tron",
    "count_request": "0",
    "last_request": "2019-03-05 15:21:38.375916"
  },
  {
    "post_id": 622,
    "old_link_name": "audi-predstavil-elektricheskiy-vnedorojnik-q4-e-tron",
    "count_request": "0",
    "last_request": "2019-03-05 15:06:32.891084"
  },
  {
    "post_id": 622,
    "old_link_name": "audi-predstavil-elektricheskiy-vnedorojnik-q4-e-tron",
    "count_request": "0",
    "last_request": "2019-03-05 15:07:23.249437"
  },
  {
    "post_id": 622,
    "old_link_name": "audi-predstavil-elektricheskiy-vnedorojnik-q4-e-tron",
    "count_request": "0",
    "last_request": "2019-03-05 15:19:36.30913"
  },
  {
    "post_id": 623,
    "old_link_name": "aston-martin-predstavil-elektricheskiy-vnedorojnik-lagonda",
    "count_request": "0",
    "last_request": "2019-06-20 20:17:35.425547"
  },
  {
    "post_id": 623,
    "old_link_name": "aston-martin-predstavil-elektricheskiy-vnedorojnik-lagonda",
    "count_request": "0",
    "last_request": "2019-06-20 20:18:32.492534"
  },
  {
    "post_id": 623,
    "old_link_name": "aston-martin-predstavil-elektricheskiy-vnedorojnik-lagonda",
    "count_request": "0",
    "last_request": "2019-03-06 07:03:45.094684"
  },
  {
    "post_id": 623,
    "old_link_name": "aston-martin-predstavil-elektricheskiy-vnedorojnik-lagonda",
    "count_request": "0",
    "last_request": "2019-03-06 07:17:49.40645"
  },
  {
    "post_id": 624,
    "old_link_name": "pininfarina-predstavil-elektricheskiy-giperkar-battista",
    "count_request": "0",
    "last_request": "2019-03-06 07:44:18.284368"
  },
  {
    "post_id": 624,
    "old_link_name": "pininfarina-predstavil-elektricheskiy-giperkar-battista",
    "count_request": "0",
    "last_request": "2019-06-25 14:31:28.28846"
  },
  {
    "post_id": 624,
    "old_link_name": "pininfarina-predstavil-elektricheskiy-giperkar-battista",
    "count_request": "0",
    "last_request": "2019-03-06 07:43:07.577669"
  },
  {
    "post_id": 625,
    "old_link_name": "honda-obyavlyaet-totalnuyu-elektrifikaciyu-v-evrope-k-2025-godu",
    "count_request": "0",
    "last_request": "2019-05-24 07:58:51.891382"
  },
  {
    "post_id": 625,
    "old_link_name": "honda-obyavlyaet-totalnuyu-elektrifikaciyu-v-evrope-k-2025-godu",
    "count_request": "0",
    "last_request": "2019-03-06 08:33:57.847216"
  },
  {
    "post_id": 626,
    "old_link_name": "tramp-stremitsya-k-sereznomu-sokrashcheniyu-finansirovaniya-vozobnovlyaemyh-istochnikov-energi",
    "count_request": "0",
    "last_request": "2019-03-08 08:55:07.043017"
  },
  {
    "post_id": 626,
    "old_link_name": "tramp-stremitsya-k-sereznomu-sokrashcheniyu-finansirovaniya-vozobnovlyaemyh-istochnikov-energii-na-70-procentov",
    "count_request": "0",
    "last_request": "2019-03-07 19:23:42.404247"
  },
  {
    "post_id": 626,
    "old_link_name": "tramp-stremitsya-k-sereznomu-sokrashcheniyu-finansirovaniya-vozobnovlyaemyh-istochnikov-energi",
    "count_request": "0",
    "last_request": "2019-03-08 08:55:54.01946"
  },
  {
    "post_id": 627,
    "old_link_name": "nissan-leaf-kupili-bolee-400-000-chelovek",
    "count_request": "0",
    "last_request": "2019-03-12 07:30:30.910713"
  },
  {
    "post_id": 627,
    "old_link_name": "nissan-leaf-kupili-bolee-400-000-chelovek",
    "count_request": "0",
    "last_request": "2019-05-13 20:36:01.999527"
  },
  {
    "post_id": 627,
    "old_link_name": "nissan-leaf-kupili-bolee-400-000-chelovek",
    "count_request": "0",
    "last_request": "2019-03-12 07:30:46.69245"
  },
  {
    "post_id": 627,
    "old_link_name": "nissan-leaf-kupili-bolee-400-000-chelovek-vo-vsem-mire",
    "count_request": "0",
    "last_request": "2019-03-12 07:29:44.644229"
  },
  {
    "post_id": 627,
    "old_link_name": "nissan-leaf-kupili-bolee-400-000-chelovek-vo-vsem-mire",
    "count_request": "0",
    "last_request": "2019-03-12 07:30:09.071413"
  },
  {
    "post_id": 628,
    "old_link_name": "kia-pokazal-budushchee-brenda-na-jenevskom-avtosalone",
    "count_request": "0",
    "last_request": "2019-05-23 08:19:22.128926"
  },
  {
    "post_id": 628,
    "old_link_name": "kia-pokazal-budushchee-brenda-na-jenevskom-avtosalone",
    "count_request": "0",
    "last_request": "2019-03-12 16:32:44.185987"
  },
  {
    "post_id": 628,
    "old_link_name": "kia-pokazal-budushchee-brenda-na-jenevskom-avtosalone",
    "count_request": "0",
    "last_request": "2019-05-23 08:18:46.564057"
  },
  {
    "post_id": 629,
    "old_link_name": "bell-nexus---koncept-letayushchey-mashiny-predstavlennyy-na-vystavke-ces",
    "count_request": "0",
    "last_request": "2019-03-14 18:14:50.314046"
  },
  {
    "post_id": 630,
    "old_link_name": "tesla-pokazala-obnovlennyy-elektricheskiy-gruzovik-semi-v-igrushechnoy-modeli",
    "count_request": "0",
    "last_request": "2019-03-13 07:34:48.667563"
  },
  {
    "post_id": 631,
    "old_link_name": "rivian-zapatentoval-modulnuyu-korobochnuyu-sistemu-dlya-svoego-elektricheskogo-pikapa-r1t",
    "count_request": "0",
    "last_request": "2019-03-13 08:31:42.661813"
  },
  {
    "post_id": 633,
    "old_link_name": "molodej-budet-protestovat-po-vsemu-miru-protiv-klimaticheskogo-bezdeystviya",
    "count_request": "0",
    "last_request": "2019-03-14 16:14:17.992592"
  },
  {
    "post_id": 633,
    "old_link_name": "molodej-budet-protestovat-po-vsemu-miru-protiv-klimaticheskogo-bezdeystviya",
    "count_request": "0",
    "last_request": "2019-03-14 16:12:31.621144"
  },
  {
    "post_id": 633,
    "old_link_name": "molodej-budet-protestovat-po-vsemu-miru-protiv-klimaticheskogo-bezdeystviya",
    "count_request": "0",
    "last_request": "2019-03-14 16:09:35.254064"
  },
  {
    "post_id": 634,
    "old_link_name": "nissan-pokazal-malenkiy-gibridnyy-vnedorojnik-na-jenevskom-avtosalone",
    "count_request": "0",
    "last_request": "2019-03-18 14:22:29.417272"
  },
  {
    "post_id": 634,
    "old_link_name": "nissan-pokazal-malenkiy-gibridnyy-vnedorojnik-na-jenevskom-avtosalone",
    "count_request": "0",
    "last_request": "2019-03-18 14:23:25.117724"
  },
  {
    "post_id": 635,
    "old_link_name": "kia-stal-partnerom-amazon-po-stanciyam-zaryadki-elektrokarov",
    "count_request": "0",
    "last_request": "2019-03-20 09:21:01.301358"
  },
  {
    "post_id": 635,
    "old_link_name": "kia-stal-partnerom-amazon-po-stanciyam-zaryadki-elektrokarov",
    "count_request": "0",
    "last_request": "2019-03-20 09:21:05.70805"
  },
  {
    "post_id": 636,
    "old_link_name": "kanadskaya-kompaniya-poluchaet-68-millionov-dollarov-na-sozdanie-tehnologii-ulavlivaniya-co2",
    "count_request": "0",
    "last_request": "2019-03-22 18:59:00.932127"
  },
  {
    "post_id": 637,
    "old_link_name": "tesla-model-x-p100d",
    "count_request": "0",
    "last_request": "2019-03-25 11:41:28.043042"
  },
  {
    "post_id": 637,
    "old_link_name": "tesla-model-x-p100d",
    "count_request": "0",
    "last_request": "2019-03-25 11:29:39.38627"
  },
  {
    "post_id": 637,
    "old_link_name": "tesla-model-x-p100d",
    "count_request": "0",
    "last_request": "2019-03-25 11:29:43.590889"
  },
  {
    "post_id": 637,
    "old_link_name": "tesla-model-x-p100d",
    "count_request": "0",
    "last_request": "2019-03-25 11:39:06.728233"
  },
  {
    "post_id": 637,
    "old_link_name": "tesla-model-x-p100d",
    "count_request": "0",
    "last_request": "2019-03-25 11:39:28.734287"
  },
  {
    "post_id": 637,
    "old_link_name": "tesla-model-x-p100d",
    "count_request": "0",
    "last_request": "2019-04-18 19:55:27.177058"
  },
  {
    "post_id": 637,
    "old_link_name": "tesla-model-x-p100d",
    "count_request": "0",
    "last_request": "2019-03-25 11:41:45.408173"
  },
  {
    "post_id": 637,
    "old_link_name": "tesla-model-x-p100d",
    "count_request": "0",
    "last_request": "2019-03-25 11:40:04.69282"
  },
  {
    "post_id": 638,
    "old_link_name": "tesla-model-y",
    "count_request": "0",
    "last_request": "2019-03-25 19:18:49.485503"
  },
  {
    "post_id": 638,
    "old_link_name": "tesla-model-y",
    "count_request": "0",
    "last_request": "2019-03-25 19:20:38.516501"
  },
  {
    "post_id": 639,
    "old_link_name": "tesla-model-s",
    "count_request": "0",
    "last_request": "2019-03-26 18:20:48.215265"
  },
  {
    "post_id": 640,
    "old_link_name": "tesla-model-3",
    "count_request": "0",
    "last_request": "2019-03-29 14:03:54.939183"
  },
  {
    "post_id": 640,
    "old_link_name": "tesla-model-3",
    "count_request": "0",
    "last_request": "2019-03-29 14:26:04.818391"
  },
  {
    "post_id": 640,
    "old_link_name": "tesla-model-3",
    "count_request": "0",
    "last_request": "2019-03-29 14:25:34.202015"
  },
  {
    "post_id": 640,
    "old_link_name": "tesla-model-3",
    "count_request": "0",
    "last_request": "2019-03-29 14:06:49.18385"
  },
  {
    "post_id": 641,
    "old_link_name": "tesla-autopilot-smojet-izbegat-yam-na-doroge",
    "count_request": "0",
    "last_request": "2019-04-08 08:31:54.368329"
  },
  {
    "post_id": 643,
    "old_link_name": "elektricheskie-gruzoviki-ot-daimler-freightliner-volvo",
    "count_request": "0",
    "last_request": "2019-04-15 09:43:48.345854"
  },
  {
    "post_id": 643,
    "old_link_name": "elektricheskie-gruzoviki-ot-daimler-freightliner-volvo",
    "count_request": "0",
    "last_request": "2019-05-14 07:37:22.551456"
  },
  {
    "post_id": 643,
    "old_link_name": "elektricheskie-gruzoviki-ot-daimler-freightliner-volvo",
    "count_request": "0",
    "last_request": "2019-05-14 07:37:49.351107"
  },
  {
    "post_id": 643,
    "old_link_name": "elektricheskie-gruzoviki-ot-daimler-freightliner-volvo-i-drugih-1727",
    "count_request": "0",
    "last_request": "2019-04-11 12:27:04.420208"
  },
  {
    "post_id": 643,
    "old_link_name": "elektricheskie-gruzoviki-ot-daimler-freightliner-volvo-i-drugih",
    "count_request": "0",
    "last_request": "2019-04-11 12:27:22.680657"
  },
  {
    "post_id": 643,
    "old_link_name": "elektricheskie-gruzoviki-ot-daimler-freightliner-volvo-i-drugih-1727",
    "count_request": "0",
    "last_request": "2019-04-11 12:26:43.360873"
  },
  {
    "post_id": 644,
    "old_link_name": "reklama-audi-e-tron-2019-nacelena-na-unichtojenie-mifov-ob-elektrokarah-1729",
    "count_request": "0",
    "last_request": "2019-04-17 08:34:57.91613"
  },
  {
    "post_id": 645,
    "old_link_name": "aston-martin-vypuskaet-elektrokar-rapide-e",
    "count_request": "0",
    "last_request": "2019-04-29 08:50:51.619326"
  },
  {
    "post_id": 645,
    "old_link_name": "aston-martin-vypuskaet-svoy-pervyy-elektrokar-rapide-e-1730",
    "count_request": "0",
    "last_request": "2019-04-17 11:29:42.839923"
  },
  {
    "post_id": 645,
    "old_link_name": "aston-martin-vypuskaet-elektrokar-rapide-e",
    "count_request": "0",
    "last_request": "2019-04-29 08:50:34.579415"
  },
  {
    "post_id": 646,
    "old_link_name": "avtosalon-v-nyu-yorke-2019-goda-i-ego-elektrokary-1731",
    "count_request": "0",
    "last_request": "2019-04-18 16:13:42.597009"
  },
  {
    "post_id": 648,
    "old_link_name": "dlya-elektricheskogo-audi-e-tron-v-novyh-mstitelyah-dobavili-zvuk-benzinovogo-dvigatelya-1733",
    "count_request": "0",
    "last_request": "2019-04-30 07:45:11.577547"
  },
  {
    "post_id": 648,
    "old_link_name": "dlya-elektricheskogo-audi-e-tron-v-novyh-mstitelyah-dobavili-zvuk-benzinovogo-dvigatelya-1733",
    "count_request": "0",
    "last_request": "2019-04-30 07:44:14.43919"
  },
  {
    "post_id": 649,
    "old_link_name": "proizvodstvo-tesla-model-y-sozdast-deficit-batarei-1734",
    "count_request": "0",
    "last_request": "2019-05-13 13:18:46.589815"
  },
  {
    "post_id": 649,
    "old_link_name": "proizvodstvo-tesla-model-y-sozdast-deficit-batarei",
    "count_request": "0",
    "last_request": "2019-05-14 09:37:35.898481"
  },
  {
    "post_id": 650,
    "old_link_name": "tesla-gigafactory-2-yavlyaetsya-glavnym-zavodom-panasonic-dlya-postavok-drugim-kompaniyam-1735",
    "count_request": "0",
    "last_request": "2019-05-15 17:11:09.575057"
  },
  {
    "post_id": 650,
    "old_link_name": "tesla-gigafactory-2-yavlyaetsya-glavnym-zavodom-panasonic-dlya-postavok-drugim-kompaniyam-1735",
    "count_request": "0",
    "last_request": "2019-05-15 17:10:05.522131"
  },
  {
    "post_id": 653,
    "old_link_name": "tesla-solar-roof-novoy-versii-budet-stoit-kak-cherepichnaya-krysha-i-schet-za-elektrichestvo-1738",
    "count_request": "0",
    "last_request": "2019-06-13 11:00:40.149823"
  },
  {
    "post_id": 653,
    "old_link_name": "tesla-solar-roof-novoy-versii-budet-stoit-kak-cherepichnaya-krysha-i-schet-za-elektrichestvo-1738",
    "count_request": "0",
    "last_request": "2019-06-14 06:42:45.491487"
  },
  {
    "post_id": 653,
    "old_link_name": "tesla-solar-roof-novoy-versii-budet-stoit-kak-cherepichnaya-krysha-i-schet-za-elektrichestvo-1738",
    "count_request": "0",
    "last_request": "2019-06-13 10:40:32.665694"
  },
  {
    "post_id": 655,
    "old_link_name": "tesla-teryaet-glavu-proizvodstva-v-kriticheskoe-vremya-1740",
    "count_request": "0",
    "last_request": "2019-06-26 12:33:44.604049"
  },
  {
    "post_id": 656,
    "old_link_name": "tesla-rabotaet-nad-sobstvennym-proizvodstvom-batarey-1741",
    "count_request": "0",
    "last_request": "2019-06-29 09:04:39.454108"
  },
  {
    "post_id": 657,
    "old_link_name": "bentley-exp-100-gt-tizernye-izobrajeniya-koncept-kara-s-nulevymi-vybrosami-1742",
    "count_request": "0",
    "last_request": "2019-07-02 10:15:08.872112"
  },
  {
    "post_id": 658,
    "old_link_name": "michelin-predlojit-bezvozdushnuyu-shinu-v-2024-godu-dlya-ev-1743",
    "count_request": "0",
    "last_request": "2019-07-03 10:22:02.484932"
  },
  {
    "post_id": 658,
    "old_link_name": "michelin-predlojit-bezvozdushnuyu-shinu-v-2024-godu-dlya-ev-1743",
    "count_request": "0",
    "last_request": "2019-07-03 10:22:24.767911"
  },
  {
    "post_id": 658,
    "old_link_name": "michelin-predlojit-bezvozdushnuyu-shinu-v-2024-godu-dlya-ev-1743",
    "count_request": "0",
    "last_request": "2019-07-03 14:09:25.269734"
  },
  {
    "post_id": 659,
    "old_link_name": "mini-cooper-se-2020-vozrodit-formulu-mini-e-1744",
    "count_request": "0",
    "last_request": "2019-07-15 08:12:51.980463"
  },
  {
    "post_id": 659,
    "old_link_name": "mini-cooper-se-2020-vozrodit-mini-e",
    "count_request": "0",
    "last_request": "2019-07-15 09:09:53.646296"
  },
  {
    "post_id": 660,
    "old_link_name": "shina-goodyear-oxygene-ochishchaet-vozduh-pri-dvijenii",
    "count_request": "0",
    "last_request": "2019-09-22 09:48:26.237431"
  },
  {
    "post_id": 660,
    "old_link_name": "shina-goodyear-oxygene-ochishchaet-vozduh-pri-dvijenii-1745",
    "count_request": "0",
    "last_request": "2019-07-15 12:06:37.166885"
  },
  {
    "post_id": 661,
    "old_link_name": "bmw-sobiraetsya-uskorit-elektrifikaciyu-svoih-mashin-v-sleduyushchie-dva-goda-1746",
    "count_request": "0",
    "last_request": "2019-08-02 06:31:23.750243"
  },
  {
    "post_id": 662,
    "old_link_name": "audi-predstavil-e-tron-dlya-evropy-so-snijennymi-harakteristikami-1747",
    "count_request": "0",
    "last_request": "2019-08-03 06:29:28.087124"
  },
  {
    "post_id": 662,
    "old_link_name": "audi-predstavil-e-tron-dlya-evropy-so-snijennymi-harakteristikami-1747",
    "count_request": "0",
    "last_request": "2019-08-03 06:27:33.690793"
  },
  {
    "post_id": 663,
    "old_link_name": "hyundai-45-ev-koncept-dlya-avtosalona-vo-frankfurte-1748",
    "count_request": "0",
    "last_request": "2019-09-18 16:06:50.118536"
  },
  {
    "post_id": 664,
    "old_link_name": "tesla-model-3-poluchaet-maksimalnuyu-ocenku-za-bezopasnost-1749",
    "count_request": "0",
    "last_request": "2019-09-21 14:08:16.127628"
  },
  {
    "post_id": 664,
    "old_link_name": "tesla-model-3-poluchaet-maksimalnuyu-ocenku-za-bezopasnost-1749",
    "count_request": "0",
    "last_request": "2019-09-21 14:07:51.711763"
  },
  {
    "post_id": 665,
    "old_link_name": "interesnye-novinki-frankfurtskogo-avtosalona-2019-1750",
    "count_request": "0",
    "last_request": "2019-10-17 14:33:59.569907"
  },
  {
    "post_id": 666,
    "old_link_name": "toyota-rav4-prime-1751",
    "count_request": "0",
    "last_request": "2019-12-06 12:40:40.87339"
  }
]