{
  "2": [
    1
  ],
  "34": [
    1
  ],
  "55": [
    1
  ],
  "72": [
    1
  ],
  "77": [
    1
  ],
  "82": [
    1
  ],
  "94": [
    1
  ],
  "125": [
    1,
    2
  ],
  "141": [
    1,
    3
  ],
  "154": [
    1,
    4
  ],
  "159": [
    1,
    5
  ],
  "161": [
    1,
    4
  ],
  "163": [
    1,
    4
  ],
  "181": [
    1,
    4
  ],
  "186": [
    1,
    4
  ],
  "187": [
    1,
    4
  ],
  "189": [
    1,
    4
  ],
  "192": [
    1
  ],
  "193": [
    1,
    2
  ],
  "198": [
    1,
    6
  ],
  "202": [
    1,
    4
  ],
  "204": [
    1
  ],
  "215": [
    1,
    7
  ],
  "238": [
    1,
    4
  ],
  "241": [
    1
  ],
  "245": [
    1
  ],
  "246": [
    1,
    4
  ],
  "248": [
    8,
    1,
    4
  ],
  "250": [
    9,
    1
  ],
  "251": [
    1,
    4
  ],
  "252": [
    10
  ],
  "266": [
    1,
    4
  ],
  "273": [
    1,
    4
  ],
  "274": [
    1,
    4
  ],
  "276": [
    1,
    4
  ],
  "278": [
    11,
    12
  ],
  "281": [
    1
  ],
  "284": [
    1,
    13,
    7
  ],
  "285": [
    1
  ],
  "288": [
    1
  ],
  "290": [
    5,
    1
  ],
  "294": [
    1,
    4
  ],
  "296": [
    1,
    4
  ],
  "298": [
    1
  ],
  "299": [
    1,
    4
  ],
  "307": [
    1
  ],
  "309": [
    1
  ],
  "310": [
    1
  ],
  "311": [
    1
  ],
  "337": [
    1
  ],
  "343": [
    14,
    1
  ],
  "348": [
    1
  ],
  "427": [
    1
  ],
  "435": [
    1
  ],
  "450": [
    1
  ],
  "451": [
    1,
    4
  ],
  "452": [
    1,
    4
  ],
  "455": [
    15
  ],
  "461": [
    1,
    4
  ],
  "463": [
    1
  ],
  "464": [
    1,
    4
  ],
  "465": [
    1,
    4
  ],
  "466": [
    10
  ],
  "471": [
    1,
    9
  ],
  "475": [
    1,
    4
  ],
  "476": [
    1
  ],
  "479": [
    1
  ],
  "480": [
    1,
    4,
    13,
    7
  ],
  "481": [
    1,
    4
  ],
  "487": [
    1,
    4,
    13,
    7
  ],
  "490": [
    1,
    4
  ],
  "492": [
    1,
    4
  ],
  "496": [
    16,
    1,
    4
  ],
  "503": [
    1
  ],
  "516": [
    1,
    4
  ],
  "518": [
    1,
    4
  ],
  "519": [
    1,
    2
  ],
  "520": [
    1,
    4
  ],
  "522": [
    1,
    4
  ],
  "545": [
    1,
    4
  ],
  "573": [
    1
  ],
  "591": [
    17
  ],
  "609": [
    18,
    19
  ],
  "610": [
    14,
    20,
    17
  ],
  "611": [
    16
  ],
  "613": [
    1,
    21
  ],
  "614": [
    1,
    21
  ],
  "615": [
    11,
    22
  ],
  "616": [
    23,
    24
  ],
  "617": [
    25,
    26
  ],
  "618": [
    27
  ],
  "619": [
    28,
    29,
    30
  ],
  "620": [
    31,
    28,
    29,
    30
  ],
  "621": [
    10,
    32,
    33
  ],
  "622": [
    18,
    19,
    34
  ],
  "623": [
    35,
    36,
    27
  ],
  "624": [
    37,
    38,
    27
  ],
  "625": [
    39,
    27
  ],
  "626": [
    40,
    41
  ],
  "627": [
    11,
    12
  ],
  "628": [
    42,
    43,
    27
  ],
  "629": [
    44,
    45,
    46,
    47
  ],
  "630": [
    1,
    48
  ],
  "631": [
    49,
    50
  ],
  "633": [
    51
  ],
  "634": [
    11,
    27,
    52
  ],
  "635": [
    42,
    53
  ],
  "636": [
    54
  ],
  "637": [
    1,
    7
  ],
  "638": [
    1,
    2
  ],
  "639": [
    1,
    13
  ],
  "640": [
    1,
    4
  ],
  "641": [
    1,
    55
  ],
  "643": [
    17,
    1,
    14
  ],
  "644": [
    18,
    19
  ],
  "645": [
    35,
    56,
    36
  ],
  "646": [
    52,
    57,
    18,
    32,
    49,
    58,
    11,
    59,
    60
  ],
  "647": [
    61
  ],
  "648": [
    18,
    19
  ],
  "649": [
    1,
    9
  ],
  "650": [
    1,
    9,
    62
  ],
  "653": [
    1,
    62
  ],
  "655": [
    1
  ],
  "656": [
    1,
    9
  ],
  "657": [
    63
  ],
  "658": [
    64,
    65
  ],
  "659": [
    66,
    67,
    16
  ],
  "660": [
    68
  ],
  "661": [
    16,
    66
  ],
  "662": [
    18,
    19
  ],
  "663": [
    69
  ],
  "664": [
    1,
    4
  ],
  "665": [
    70,
    52,
    71,
    72,
    73
  ],
  "666": [
    74,
    75
  ],
  "667": [
    76,
    77
  ]
}