[
  {
    "user_id": "1",
    "provider": "facebook",
    "provider_id": "1083994885082690"
  },
  {
    "user_id": "1",
    "provider": "vkontakte",
    "provider_id": "56711571"
  },
  {
    "user_id": "5",
    "provider": "vkontakte",
    "provider_id": "196391682"
  },
  {
    "user_id": "7",
    "provider": "vkontakte",
    "provider_id": "481145136"
  },
  {
    "user_id": "11",
    "provider": "vkontakte",
    "provider_id": "44023281"
  },
  {
    "user_id": "12",
    "provider": "vkontakte",
    "provider_id": "78644111"
  },
  {
    "user_id": "13",
    "provider": "vkontakte",
    "provider_id": "220620264"
  },
  {
    "user_id": "14",
    "provider": "vkontakte",
    "provider_id": "378829901"
  },
  {
    "user_id": "19",
    "provider": "vkontakte",
    "provider_id": "295265796"
  },
  {
    "user_id": "20",
    "provider": "vkontakte",
    "provider_id": "502019056"
  },
  {
    "user_id": "21",
    "provider": "vkontakte",
    "provider_id": "56681761"
  },
  {
    "user_id": "22",
    "provider": "facebook",
    "provider_id": "443469516060744"
  },
  {
    "user_id": "23",
    "provider": "vkontakte",
    "provider_id": "133819354"
  },
  {
    "user_id": "24",
    "provider": "vkontakte",
    "provider_id": "373529687"
  },
  {
    "user_id": "25",
    "provider": "vkontakte",
    "provider_id": "21074188"
  },
  {
    "user_id": "26",
    "provider": "facebook",
    "provider_id": "1924849060891607"
  },
  {
    "user_id": "27",
    "provider": "facebook",
    "provider_id": "329774511110296"
  },
  {
    "user_id": "30",
    "provider": "vkontakte",
    "provider_id": "47672478"
  },
  {
    "user_id": "31",
    "provider": "vkontakte",
    "provider_id": "133327188"
  },
  {
    "user_id": "32",
    "provider": "vkontakte",
    "provider_id": "5227908"
  },
  {
    "user_id": "33",
    "provider": "facebook",
    "provider_id": "10213255356394766"
  },
  {
    "user_id": "35",
    "provider": "vkontakte",
    "provider_id": "440722698"
  },
  {
    "user_id": "36",
    "provider": "vkontakte",
    "provider_id": "82461845"
  },
  {
    "user_id": "37",
    "provider": "facebook",
    "provider_id": "10150061300272048"
  },
  {
    "user_id": "38",
    "provider": "facebook",
    "provider_id": "2318662821708065"
  },
  {
    "user_id": "39",
    "provider": "facebook",
    "provider_id": "1001302152403"
  },
  {
    "user_id": "40",
    "provider": "facebook",
    "provider_id": "1001306872507"
  },
  {
    "user_id": "41",
    "provider": "facebook",
    "provider_id": "10150068511815196"
  }
]